…
## Identify States in Each Cluster

To better understand these clusters, I find out which states belong to
each cluster.

``` r
# List states per cluster
states_in_clusters <- state_data %>%
  select(State, Cluster) %>%
  arrange(Cluster)

print(states_in_clusters)
```

    ## # A tibble: 50 × 2
    ##    State         Cluster
    ##    <chr>         <fct>  
    ##  1 Alaska        1      
    ##  2 Connecticut   2      
    ##  3 Delaware      2      
    ##  4 Hawaii        2      
    ##  5 Idaho         2      
    ##  6 Indiana       2      
    ##  7 Iowa          2      
    ##  8 Kansas        2      
    ##  9 Maine         2      
    ## 10 Massachusetts 2      
    ## # ℹ 40 more rows
…
